{
  "extends": "tslint:recommended",
  "jsRules": {
  },
  "rules": {
    "adjacent-overload-signatures": true,
    "member-access": [
      true,
      "check-accessor",
      "check-constructor"
    ],
    "member-ordering": [
      true,
      {
        "order": [
          "public-static-field",
          "public-instance-field",
          "protected-static-field",
          "protected-instance-field",
          "private-static-field",
          "private-instance-field",
          "public-constructor",
          "protected-constructor",
          "private-constructor",
          "public-static-method",
          "public-instance-method",
          "protected-static-method",
          "protected-instance-method",
          "private-static-method",
          "private-instance-method"
        ]
      }
    ],
    "no-empty-interface": true,
    "no-import-side-effect": false,
    "no-inferrable-types": true,
    "no-internal-module": true,
    "no-magic-numbers": false,
    "no-namespace": [
      true,
      "allow-declarations"
    ],
    "no-non-null-assertion": true,
    "no-reference": true,
    "no-unnecessary-type-assertion": true,
    "no-var-requires": false,
    "only-arrow-functions": [
      true,
      "allow-declarations"
    ],
    "prefer-for-of": true,
    "promise-function-async": false,
    "typedef-whitespace": [
      true,
      {
        "call-signature": "nospace",
        "index-signature": "nospace",
        "parameter": "nospace",
        "property-declaration": "nospace",
        "variable-declaration": "nospace"
      },
      {
        "call-signature": "onespace",
        "index-signature": "onespace",
        "parameter": "onespace",
        "property-declaration": "onespace",
        "variable-declaration": "onespace"
      }
    ],
    "unified-signatures": false,
    "await-promise": true,
    "ban": [
      true,
      [
        "window",
        "eval",
        "Eval is evil"
      ]
    ],
    "curly": true,
    "forin": true,
    "import-blacklist": false,
    "label-position": false,
    "no-arg": true,
    "no-bitwise": true,
    "no-conditional-assignment": true,
    "no-console": true,
    "no-construct": true,
    "no-debugger": true,
    "no-duplicate-super": true,
    "no-duplicate-variable": true,
    "no-empty": true,
    "no-eval": true,
    "no-floating-promises": true,
    "no-for-in-array": true,
    "no-invalid-template-strings": true,
    "no-invalid-this": [
      true,
      "check-function-in-method"
    ],
    "no-misused-new": true,
    "no-null-keyword": false,
    "no-object-literal-type-assertion": true,
    "no-shadowed-variable": true,
    "no-sparse-arrays": true,
    "no-string-literal": true,
    "no-string-throw": true,
    "no-switch-case-fall-through": true,
    "no-unbound-method": true,
    "no-unsafe-finally": true,
    "no-unused-expression": [
      true,
      "allow-fast-null-checks",
      "allow-new"
    ],
    "no-unused-variable": true,
    "no-use-before-declare": true,
    "no-var-keyword": true,
    "no-void-expression": true,
    "radix": true,
    "restrict-plus-operands": true,
    "switch-default": true,
    "triple-equals": [
      true,
      "allow-null-check"
    ],
    "typeof-compare": true,
    "use-isnan": true,
    "cyclomatic-complexity": [
      true,
      20
    ],
    "deprecation": true,
    "eofline": true,
    "indent": [
      true,
      "spaces"
    ],
    "linebreak-style": [
      true,
      "LF"
    ],
    "max-classes-per-file": [
      true,
      1
    ],
    "max-file-line-count": false,
    "max-line-length": [
      true,
      120
    ],
    "no-default-export": true,
    "no-mergeable-namespace": true,
    "no-require-imports": false,
    "object-literal-sort-keys": false,
    "prefer-const": [
      true,
      {
        "destructuring": "all"
      }
    ],
    "trailing-comma": [
      true,
      {
        "multiline": "never",
        "singleline": "never"
      }
    ],
    "align": [
      true,
      "statements"
    ],
    "array-type": [
      false,
      "generic"
    ],
    "arrow-parens": true,
    "arrow-return-shorthand": [
      true,
      "multiline"
    ],
    "callable-types": true,
    "class-name": true,
    "comment-format": [
      true,
      "check-space"
    ],
    "completed-docs": [
      true,
      {
        "functions": {
          "visibilities": [
            "exported"
          ]
        },
        "methods": {
          "locations": "all",
          "privacies": [
            "public",
            "protected"
          ]
        },
        "properties": {
          "locations": "all",
          "privacies": [
            "public",
            "protected"
          ]
        }
      }
    ],
    "file-header": false,
    "import-spacing": true,
    "interface-name": [
      true,
      "always-prefix"
    ],
    "interface-over-type-literal": false,
    "jsdoc-format": true,
    "match-default-export-name": false,
    "newline-before-return": false,
    "new-parens": true,
    "no-angle-bracket-type-assertion": true,
    "no-boolean-literal-compare": true,
    "no-consecutive-blank-lines": true,
    "no-irregular-whitespace": true,
    "no-parameter-properties": false,
    "no-reference-import": true,
    "no-trailing-whitespace": true,
    "no-unnecessary-callback-wrapper": true,
    "no-unnecessary-initializer": true,
    "no-unnecessary-qualifier": true,
    "number-literal-format": true,
    "object-literal-key-quotes": [
      true,
      "consistent-as-needed"
    ],
    "object-literal-shorthand": true,
    "one-line": [
      true,
      "check-catch",
      "check-finally",
      "check-else",
      "check-open-brace",
      "check-whitespace"
    ],
    "one-variable-per-declaration": false,
    "ordered-imports": false,
    "prefer-function-over-method": false,
    "prefer-method-signature": true,
    "prefer-switch": [
      true,
      {
        "min-cases": 2
      }
    ],
    "prefer-template": true,
    "quotemark": [
      true,
      "single",
      "jsx-single"
    ],
    "return-undefined": false,
    "semicolon": [
      true,
      "always"
    ],
    "space-before-function-paren": [
      true,
      {
        "anonymous": "never",
        "named": "never",
        "asyncArrow": "never",
        "method": "never",
        "constructor": "never"
      }
    ],
    "variable-name": [
      true,
      "ban-keywords",
      "check-format",
      "allow-leading-underscore",
      "allow-pascal-case"
    ],
    "whitespace": [
      true,
      "check-branch",
      "check-decl",
      "check-operator",
      "check-module",
      "check-separator",
      "check-type",
      "check-typecast",
      "check-preblock"
    ]
  }
}
