{
    "id": 8,
    "t": [
        1518605400,
        1518606300,
        1518607200,
        1518608100,
        1518609000,
        1518609900,
        1518610800,
        1518611700,
        1518612600,
        1518613500,
        1518614400,
        1518615300,
        1518616200,
        1518617100,
        1518618000,
        1518618900,
        1518619800,
        1518620700,
        1518621600,
        1518622500,
        1518623400,
        1518624300,
        1518625200,
        1518626100,
        1518627000,
        1518627900,
        1518628800,
        1518629700,
        1518630600,
        1518631500,
        1518632400,
        1518633300,
        1518634200,
        1518635100,
        1518636000,
        1518636900,
        1518637800,
        1518638700,
        1518639600,
        1518640500,
        1518641400,
        1518642300,
        1518643200,
        1518644100,
        1518645000,
        1518645900,
        1518646800,
        1518647700,
        1518648600,
        1518649500,
        1518650400,
        1518651300,
        1518652200,
        1518653100,
        1518654000,
        1518654900,
        1518655800,
        1518656700,
        1518657600,
        1518658500,
        1518659400,
        1518660300,
        1518661200,
        1518662100,
        1518663000,
        1518663900,
        1518664800,
        1518665700,
        1518666600,
        1518667500,
        1518668400,
        1518669300,
        1518670200,
        1518671100,
        1518672000,
        1518672900,
        1518673800,
        1518674700,
        1518675600,
        1518676500,
        1518677400,
        1518678300,
        1518679200,
        1518680100,
        1518681000,
        1518681900,
        1518682800,
        1518683700,
        1518684600,
        1518685500,
        1518686400,
        1518687300,
        1518688200,
        1518689100,
        1518690000,
        1518690900,
        1518691800,
        1518692700,
        1518693600,
        1518694500,
        1518695400,
        1518696300,
        1518697200,
        1518698100,
        1518699000,
        1518699900,
        1518700800,
        1518701700,
        1518702600,
        1518703500,
        1518704400,
        1518705300,
        1518706200,
        1518707100,
        1518708000,
        1518708900,
        1518709800,
        1518710700,
        1518711600,
        1518712500,
        1518713400,
        1518714300,
        1518715200,
        1518716100,
        1518717000,
        1518717900,
        1518718800,
        1518719700,
        1518720600,
        1518721500,
        1518722400,
        1518723300,
        1518724200,
        1518725100,
        1518726000,
        1518726900,
        1518727800,
        1518728700,
        1518729600,
        1518730500,
        1518731400,
        1518732300,
        1518733200,
        1518734100,
        1518735000,
        1518735900,
        1518736800,
        1518737700,
        1518738600,
        1518739500,
        1518740400,
        1518741300,
        1518742200,
        1518743100,
        1518744000,
        1518744900,
        1518745800,
        1518746700,
        1518747600,
        1518748500,
        1518749400,
        1518750300,
        1518751200,
        1518752100,
        1518753000,
        1518753900,
        1518754800,
        1518755700,
        1518756600,
        1518757500,
        1518758400,
        1518759300,
        1518760200,
        1518761100,
        1518762000,
        1518762900,
        1518763800,
        1518764700,
        1518765600,
        1518766500,
        1518767400,
        1518768300,
        1518769200,
        1518770100,
        1518771000,
        1518771900,
        1518772800,
        1518773700,
        1518774600,
        1518775500,
        1518776400,
        1518777300,
        1518778200,
        1518779100,
        1518780000,
        1518780900,
        1518781800,
        1518782700,
        1518783600,
        1518784500,
        1518785400,
        1518786300,
        1518787200,
        1518788100,
        1518789000,
        1518789900,
        1518790800,
        1518791700,
        1518792600,
        1518793500,
        1518794400,
        1518795300,
        1518796200,
        1518797100,
        1518798000,
        1518798900,
        1518799800,
        1518800700,
        1518801600,
        1518802500,
        1518803400,
        1518804300,
        1518805200,
        1518806100,
        1518807000,
        1518807900,
        1518808800,
        1518809700,
        1518810600,
        1518811500,
        1518812400,
        1518813300,
        1518814200,
        1518815100,
        1518816000,
        1518816900,
        1518817800,
        1518818700,
        1518819600,
        1518820500,
        1518821400,
        1518822300,
        1518823200,
        1518824100,
        1518825000,
        1518825900,
        1518826800,
        1518827700,
        1518828600,
        1518829500,
        1518830400,
        1518831300,
        1518832200,
        1518833100,
        1518834000,
        1518834900,
        1518835800,
        1518836700,
        1518837600,
        1518838500,
        1518839400,
        1518840300,
        1518841200,
        1518842100,
        1518843000,
        1518843900,
        1518844800,
        1518845700,
        1518846600,
        1518847500,
        1518848400,
        1518849300,
        1518850200,
        1518851100,
        1518852000,
        1518852900,
        1518853800,
        1518854700,
        1518855600,
        1518856500,
        1518857400,
        1518858300,
        1518859200,
        1518860100,
        1518861000,
        1518861900,
        1518862800,
        1518863700,
        1518864600,
        1518865500,
        1518866400,
        1518867300,
        1518868200,
        1518869100,
        1518870000,
        1518870900,
        1518871800,
        1518872700,
        1518873600,
        1518874500,
        1518875400,
        1518876300,
        1518877200,
        1518878100,
        1518879000,
        1518879900,
        1518880800,
        1518881700,
        1518882600,
        1518883500,
        1518884400,
        1518885300,
        1518886200,
        1518887100,
        1518888000,
        1518888900,
        1518889800,
        1518890700,
        1518891600,
        1518892500,
        1518893400,
        1518894300,
        1518895200,
        1518896100,
        1518897000,
        1518897900,
        1518898800,
        1518899700,
        1518900600,
        1518901500,
        1518902400,
        1518903300,
        1518904200,
        1518905100,
        1518906000,
        1518906900,
        1518907800,
        1518908700,
        1518909600,
        1518910500,
        1518911400,
        1518912300,
        1518913200,
        1518914100,
        1518915000,
        1518915900,
        1518916800,
        1518917700,
        1518918600,
        1518919500,
        1518920400,
        1518921300,
        1518922200,
        1518923100,
        1518924000,
        1518924900,
        1518925800,
        1518926700,
        1518927600,
        1518928500,
        1518929400,
        1518930300,
        1518931200,
        1518932100,
        1518933000,
        1518933900,
        1518934800,
        1518935700,
        1518936600,
        1518937500,
        1518938400,
        1518939300,
        1518940200,
        1518941100,
        1518942000,
        1518942900,
        1518943800,
        1518944700,
        1518945600,
        1518946500,
        1518947400,
        1518948300,
        1518949200,
        1518950100,
        1518951000,
        1518951900,
        1518952800,
        1518953700,
        1518954600,
        1518955500,
        1518956400,
        1518957300,
        1518958200,
        1518959100,
        1518960000,
        1518960900,
        1518961800,
        1518962700,
        1518963600,
        1518964500,
        1518965400,
        1518966300,
        1518967200,
        1518968100,
        1518969000,
        1518969900,
        1518970800,
        1518971700,
        1518972600,
        1518973500,
        1518974400,
        1518975300,
        1518976200,
        1518977100,
        1518978000,
        1518978900,
        1518979800,
        1518980700,
        1518981600,
        1518982500,
        1518983400,
        1518984300,
        1518985200,
        1518986100,
        1518987000,
        1518987900,
        1518988800,
        1518989700,
        1518990600,
        1518991500,
        1518992400,
        1518993300,
        1518994200,
        1518995100,
        1518996000,
        1518996900,
        1518997800,
        1518998700,
        1518999600,
        1519000500,
        1519001400,
        1519002300,
        1519003200,
        1519004100,
        1519005000,
        1519005900,
        1519006800,
        1519007700,
        1519008600,
        1519009500,
        1519010400,
        1519011300,
        1519012200,
        1519013100,
        1519014000,
        1519014900,
        1519015800,
        1519016700,
        1519017600,
        1519018500,
        1519019400,
        1519020300,
        1519021200,
        1519022100,
        1519023000,
        1519023900,
        1519024800,
        1519025700,
        1519026600,
        1519027500,
        1519028400,
        1519029300,
        1519030200,
        1519031100,
        1519032000,
        1519032900,
        1519033800,
        1519034700,
        1519035600,
        1519036500,
        1519037400,
        1519038300,
        1519039200,
        1519040100,
        1519041000,
        1519041900,
        1519042800,
        1519043700,
        1519044600,
        1519045500,
        1519046400,
        1519047300,
        1519048200,
        1519049100,
        1519050000,
        1519050900,
        1519051800,
        1519052700,
        1519053600,
        1519054500,
        1519055400,
        1519056300,
        1519057200,
        1519058100,
        1519059000,
        1519059900,
        1519060800,
        1519061700,
        1519062600,
        1519063500,
        1519064400,
        1519065300,
        1519066200,
        1519067100,
        1519068000,
        1519068900,
        1519069800,
        1519070700,
        1519071600,
        1519072500,
        1519073400,
        1519074300,
        1519075200,
        1519076100,
        1519077000,
        1519077900,
        1519078800,
        1519079700,
        1519080600,
        1519081500,
        1519082400,
        1519083300,
        1519084200,
        1519085100,
        1519086000,
        1519086900,
        1519087800,
        1519088700,
        1519089600,
        1519090500,
        1519091400,
        1519092300,
        1519093200,
        1519094100,
        1519095000,
        1519095900,
        1519096800,
        1519097700,
        1519098600,
        1519099500,
        1519100400,
        1519101300,
        1519102200,
        1519103100,
        1519104000,
        1519104900,
        1519105800,
        1519106700,
        1519107600,
        1519108500,
        1519109400,
        1519110300,
        1519111200,
        1519112100,
        1519113000,
        1519113900,
        1519114800,
        1519115700,
        1519116600,
        1519117500,
        1519118400,
        1519119300,
        1519120200,
        1519121100,
        1519122000,
        1519122900,
        1519123800,
        1519124700,
        1519125600,
        1519126500,
        1519127400,
        1519128300,
        1519129200,
        1519130100,
        1519131000,
        1519131900,
        1519132800,
        1519133700,
        1519134600,
        1519135500,
        1519136400,
        1519137300,
        1519138200,
        1519139100,
        1519140000,
        1519140900,
        1519141800,
        1519142700,
        1519143600,
        1519144500,
        1519145400,
        1519146300,
        1519147200,
        1519148100,
        1519149000,
        1519149900,
        1519150800,
        1519151700,
        1519152600,
        1519153500,
        1519154400,
        1519155300,
        1519156200,
        1519157100,
        1519158000,
        1519158900,
        1519159800,
        1519160700,
        1519161600,
        1519162500,
        1519163400,
        1519164300,
        1519165200,
        1519166100,
        1519167000,
        1519167900,
        1519168800,
        1519169700,
        1519170600,
        1519171500,
        1519172400,
        1519173300,
        1519174200,
        1519175100,
        1519176000,
        1519176900,
        1519177800,
        1519178700,
        1519179600,
        1519180500,
        1519181400,
        1519182300,
        1519183200,
        1519184100,
        1519185000,
        1519185900,
        1519186800,
        1519187700,
        1519188600,
        1519189500,
        1519190400,
        1519191300,
        1519192200,
        1519193100,
        1519194000,
        1519194900,
        1519195800,
        1519196700,
        1519197600,
        1519198500,
        1519199400,
        1519200300,
        1519201200,
        1519202100,
        1519203000,
        1519203900,
        1519204800,
        1519205700,
        1519206600,
        1519207500,
        1519208400,
        1519209300,
        1519210200
    ],
    "c": [
        0.00064906,
        0.00065024,
        0.00065026,
        0.00064668,
        0.0006516,
        0.0006447,
        0.00064728,
        0.00065084,
        0.00065269,
        0.00065019,
        0.00065604,
        0.00065771,
        0.00065396,
        0.00065865,
        0.00066161,
        0.00065896,
        0.00066063,
        0.00066102,
        0.00065761,
        0.00066178,
        0.00066163,
        0.00066358,
        0.00066245,
        0.00066402,
        0.00066465,
        0.00066271,
        0.00066433,
        0.00066336,
        0.00066483,
        0.00066574,
        0.00066479,
        0.00066407,
        0.00066381,
        0.00066151,
        0.00066151,
        0.00066402,
        0.00066476,
        0.00066339,
        0.00066397,
        0.00066509,
        0.00066814,
        0.00067021,
        0.00067432,
        0.00067397,
        0.00067416,
        0.00067432,
        0.00067544,
        0.00067579,
        0.00067593,
        0.00067615,
        0.00067389,
        0.00067548,
        0.00067615,
        0.0006774,
        0.00067755,
        0.00067732,
        0.00068162,
        0.00068574,
        0.00068709,
        0.00068651,
        0.0006852,
        0.0006846,
        0.00067797,
        0.00068786,
        0.0006881,
        0.00068975,
        0.00068924,
        0.00068603,
        0.00068548,
        0.00068359,
        0.00068495,
        0.00068444,
        0.00068546,
        0.00068935,
        0.0006891,
        0.00069114,
        0.00069064,
        0.00069253,
        0.00069106,
        0.00069064,
        0.00069132,
        0.00069253,
        0.00069201,
        0.0006927,
        0.00069149,
        0.00069425,
        0.00069322,
        0.00068852,
        0.00069243,
        0.00069355,
        0.00069982,
        0.00070175,
        0.00071131,
        0.00070496,
        0.0007057,
        0.00070842,
        0.00071325,
        0.0007143,
        0.00071303,
        0.00071197,
        0.00071339,
        0.00071516,
        0.00071101,
        0.00071713,
        0.00072999,
        0.00074587,
        0.00074302,
        0.00074264,
        0.0007426,
        0.00073894,
        0.00073829,
        0.00074003,
        0.00073407,
        0.0007371,
        0.00073671,
        0.00073381,
        0.00073843,
        0.00073603,
        0.0007314,
        0.00072819,
        0.00072381,
        0.00072851,
        0.00073929,
        0.00074448,
        0.00074466,
        0.00074799,
        0.00075068,
        0.00077545,
        0.00077157,
        0.00077339,
        0.00076983,
        0.00076697,
        0.0007708,
        0.00076974,
        0.00076775,
        0.00076304,
        0.00076536,
        0.00076232,
        0.00075854,
        0.00075118,
        0.00075551,
        0.00076239,
        0.00076385,
        0.00076383,
        0.00077226,
        0.00077273,
        0.0007731,
        0.00077462,
        0.00077535,
        0.00077923,
        0.00078859,
        0.00079803,
        0.00079124,
        0.00078547,
        0.0007794,
        0.00078441,
        0.00077936,
        0.00078732,
        0.00079325,
        0.0008004,
        0.00080159,
        0.00080144,
        0.00080125,
        0.0008024,
        0.00080265,
        0.00079602,
        0.00079797,
        0.00079877,
        0.00079798,
        0.00079838,
        0.00079624,
        0.00079451,
        0.00079449,
        0.00079406,
        0.00079449,
        0.0007877,
        0.00078657,
        0.0007881,
        0.00078905,
        0.00079057,
        0.00078652,
        0.00078572,
        0.00078612,
        0.00078089,
        0.00078012,
        0.00077744,
        0.00077426,
        0.00077274,
        0.00077342,
        0.00077344,
        0.00076729,
        0.00076805,
        0.00076881,
        0.0007662,
        0.00076394,
        0.00076076,
        0.00076256,
        0.00076956,
        0.0007669,
        0.00076788,
        0.00075447,
        0.00075475,
        0.00075534,
        0.00075071,
        0.00075867,
        0.00075409,
        0.00074984,
        0.0007623,
        0.00075397,
        0.00075049,
        0.0007491,
        0.00073765,
        0.00074246,
        0.00073909,
        0.0007327,
        0.00074148,
        0.00074279,
        0.00074192,
        0.00074001,
        0.0007486,
        0.0007367,
        0.00073448,
        0.0007316,
        0.00075098,
        0.0007485,
        0.00074754,
        0.00074627,
        0.00074185,
        0.00074837,
        0.00073284,
        0.00073924,
        0.00074317,
        0.00073802,
        0.00074664,
        0.00074554,
        0.00074652,
        0.00074598,
        0.00075098,
        0.00074805,
        0.00074958,
        0.00074958,
        0.00074941,
        0.00075185,
        0.00075198,
        0.00076204,
        0.00075775,
        0.00075449,
        0.00075354,
        0.00075281,
        0.00075275,
        0.0007531,
        0.00075328,
        0.00074953,
        0.00074663,
        0.00074517,
        0.00074695,
        0.00075163,
        0.00075008,
        0.0007503,
        0.00074607,
        0.00074657,
        0.00074398,
        0.00074137,
        0.0007436,
        0.00074132,
        0.00073937,
        0.00074096,
        0.00074211,
        0.00074062,
        0.00073795,
        0.0007372,
        0.00073356,
        0.00073394,
        0.00073141,
        0.00072971,
        0.00073017,
        0.00072405,
        0.00072634,
        0.00072316,
        0.00072035,
        0.00072085,
        0.00072128,
        0.0007167,
        0.00072165,
        0.00072448,
        0.00072165,
        0.0007231,
        0.00072388,
        0.00072345,
        0.00072428,
        0.00072078,
        0.00071514,
        0.00071129,
        0.00071372,
        0.00071267,
        0.00071195,
        0.00071267,
        0.00071406,
        0.00071477,
        0.00071624,
        0.00071624,
        0.00071839,
        0.00071566,
        0.00071661,
        0.0007177,
        0.00071693,
        0.00071835,
        0.00071802,
        0.00071766,
        0.00071696,
        0.00071487,
        0.0007135,
        0.00071339,
        0.00071108,
        0.00071022,
        0.00070848,
        0.00070743,
        0.00070706,
        0.00070658,
        0.00070241,
        0.00070669,
        0.00070801,
        0.00070662,
        0.00070696,
        0.00070701,
        0.00070666,
        0.00070358,
        0.00070529,
        0.00070353,
        0.00070404,
        0.00070474,
        0.00070362,
        0.00070397,
        0.00070425,
        0.00070701,
        0.00070666,
        0.00070546,
        0.0007046,
        0.00070425,
        0.00070354,
        0.00070474,
        0.00070257,
        0.00070063,
        0.00070124,
        0.00069953,
        0.00069617,
        0.00069516,
        0.00068965,
        0.00068823,
        0.00068845,
        0.00068616,
        0.00068756,
        0.00068683,
        0.00068455,
        0.00068581,
        0.0006876,
        0.00069241,
        0.00069321,
        0.00069136,
        0.00069068,
        0.0006895,
        0.00069215,
        0.00069303,
        0.00068754,
        0.00068882,
        0.00068925,
        0.0006875,
        0.0006868,
        0.00068708,
        0.00068743,
        0.00068609,
        0.00068708,
        0.00068674,
        0.00068617,
        0.00069014,
        0.00069377,
        0.00069345,
        0.00068934,
        0.00069277,
        0.00069299,
        0.0006931,
        0.00069294,
        0.00069896,
        0.0007008,
        0.00070201,
        0.00071391,
        0.00071323,
        0.00070945,
        0.00070944,
        0.00071449,
        0.00071839,
        0.00072431,
        0.00071956,
        0.00072281,
        0.00072998,
        0.00073893,
        0.00073468,
        0.00073841,
        0.00074194,
        0.00073144,
        0.00072698,
        0.00072369,
        0.00072597,
        0.00072632,
        0.00072776,
        0.0007321,
        0.00072685,
        0.00072966,
        0.00072789,
        0.000726,
        0.00072761,
        0.00072684,
        0.0007263,
        0.00072702,
        0.00072703,
        0.00072731,
        0.00072447,
        0.00072676,
        0.00071914,
        0.00072007,
        0.00072377,
        0.00072326,
        0.00072561,
        0.00071954,
        0.00072314,
        0.0007211,
        0.00072325,
        0.0007213,
        0.00072346,
        0.00072374,
        0.00072433,
        0.00071998,
        0.00072129,
        0.00072305,
        0.00072269,
        0.0007191,
        0.00071555,
        0.00071334,
        0.00071349,
        0.00071412,
        0.0007141,
        0.0007152,
        0.00071374,
        0.00071412,
        0.00071769,
        0.00072145,
        0.00072286,
        0.00072252,
        0.00072101,
        0.00072048,
        0.00072247,
        0.00072518,
        0.00071724,
        0.00072082,
        0.00072057,
        0.00072282,
        0.00072298,
        0.00073145,
        0.00073288,
        0.0007382,
        0.00075108,
        0.00074262,
        0.00074094,
        0.00075285,
        0.00074878,
        0.00074502,
        0.00073159,
        0.00072986,
        0.00073312,
        0.00073201,
        0.0007314,
        0.00073254,
        0.00074087,
        0.00073764,
        0.00073349,
        0.00073118,
        0.00073191,
        0.00072686,
        0.00072578,
        0.0007254,
        0.00072614,
        0.00072663,
        0.00072645,
        0.00072646,
        0.00072611,
        0.00072604,
        0.00072604,
        0.00072868,
        0.00072896,
        0.00072893,
        0.00073032,
        0.00073032,
        0.00073288,
        0.00073105,
        0.00072805,
        0.00072968,
        0.00072796,
        0.00072713,
        0.00072649,
        0.00072132,
        0.00071738,
        0.00071663,
        0.00071777,
        0.00071823,
        0.00071737,
        0.00072101,
        0.00072058,
        0.00072166,
        0.000722,
        0.000722,
        0.000722,
        0.00072181,
        0.00072503,
        0.00072402,
        0.00072327,
        0.00071961,
        0.00071702,
        0.00072104,
        0.00072201,
        0.00072104,
        0.00072463,
        0.0007228,
        0.00072307,
        0.00072436,
        0.00072436,
        0.00072364,
        0.00072358,
        0.00072233,
        0.00072233,
        0.00072267,
        0.00072254,
        0.00072311,
        0.00072214,
        0.00072073,
        0.00071619,
        0.0007146,
        0.00070925,
        0.00071116,
        0.00070942,
        0.00070923,
        0.0007063,
        0.00070463,
        0.0007007,
        0.00070381,
        0.00070416,
        0.00070504,
        0.00070532,
        0.00071089,
        0.00070811,
        0.00070601,
        0.00070722,
        0.00070722,
        0.00070679,
        0.00070805,
        0.00071156,
        0.00070995,
        0.00071006,
        0.00071336,
        0.00071469,
        0.00071291,
        0.00071112,
        0.00070852,
        0.00070882,
        0.00070776,
        0.0007085,
        0.00071532,
        0.00071535,
        0.00071609,
        0.00071667,
        0.00071848,
        0.00071726,
        0.0007163,
        0.0007156,
        0.00071704,
        0.00071741,
        0.00071441,
        0.00071409,
        0.00071478,
        0.00071315,
        0.00071227,
        0.00071089,
        0.00071039,
        0.00070918,
        0.00070791,
        0.00070772,
        0.0007074,
        0.00070315,
        0.00070262,
        0.00070192,
        0.00070114,
        0.00070383,
        0.00070278,
        0.00070339,
        0.00070394,
        0.00070558,
        0.00070176,
        0.00070049,
        0.00069483,
        0.00069512,
        0.00069343,
        0.00069308,
        0.00069065,
        0.00068587,
        0.00068513,
        0.00068859,
        0.00068411,
        0.00068721,
        0.00068654,
        0.0006901,
        0.00069173,
        0.00069539,
        0.00069866,
        0.00069858,
        0.00070098,
        0.00069512,
        0.00069811,
        0.00070109,
        0.00069827,
        0.00069892,
        0.00070074,
        0.0007052,
        0.00071124,
        0.00071032,
        0.00070577,
        0.00069951,
        0.00069898,
        0.00070162,
        0.00070328,
        0.00070622,
        0.00070313,
        0.00069997,
        0.00069989,
        0.00071129,
        0.00071493,
        0.00071398,
        0.00072923,
        0.00074949,
        0.00073636,
        0.00073835,
        0.00073912,
        0.00073727,
        0.00073801,
        0.00073635,
        0.00073468,
        0.00073579,
        0.00073289,
        0.00073247,
        0.00072941,
        0.00072896,
        0.00072396,
        0.00072378,
        0.00072436,
        0.00072395,
        0.00072379,
        0.00072217,
        0.00072524,
        0.00072625,
        0.00073178,
        0.00073167,
        0.00073231,
        0.00073176,
        0.000728,
        0.000728,
        0.0007265,
        0.00072651,
        0.0007249,
        0.00072411,
        0.00072435,
        0.00072654,
        0.0007269,
        0.00072627,
        0.00072582,
        0.00072582
    ],
    "o": [
        0.0006486,
        0.00064905,
        0.00065024,
        0.00064876,
        0.00064631,
        0.00065225,
        0.00064437,
        0.00064638,
        0.00065054,
        0.00065269,
        0.00065131,
        0.00065604,
        0.00065705,
        0.00065396,
        0.00065865,
        0.00066161,
        0.00066094,
        0.00066064,
        0.00066168,
        0.00065761,
        0.00066184,
        0.00066168,
        0.00066358,
        0.00066344,
        0.00066459,
        0.00066484,
        0.0006621,
        0.00066466,
        0.00066346,
        0.00066579,
        0.0006651,
        0.00066479,
        0.00066473,
        0.00066476,
        0.0006625,
        0.00066151,
        0.00066398,
        0.00066519,
        0.00066484,
        0.00066396,
        0.00066452,
        0.00066814,
        0.00067021,
        0.00067251,
        0.00067398,
        0.00067416,
        0.00067432,
        0.00067544,
        0.00067579,
        0.00067584,
        0.00067615,
        0.00067389,
        0.00067548,
        0.00067615,
        0.00067783,
        0.00067755,
        0.00067732,
        0.00068162,
        0.00068472,
        0.00068812,
        0.00068822,
        0.00068499,
        0.0006846,
        0.00067797,
        0.00068718,
        0.00068879,
        0.00068811,
        0.00068963,
        0.00068558,
        0.00068548,
        0.0006841,
        0.00068516,
        0.00068512,
        0.00068546,
        0.00069004,
        0.0006891,
        0.00069079,
        0.00069064,
        0.00069252,
        0.00069106,
        0.00069064,
        0.00069081,
        0.00069253,
        0.00069176,
        0.0006921,
        0.00069218,
        0.00069287,
        0.00069322,
        0.0006889,
        0.0006908,
        0.00069355,
        0.00069852,
        0.00070313,
        0.0007113,
        0.0007055,
        0.00070559,
        0.00070842,
        0.00071254,
        0.0007143,
        0.00071303,
        0.00071197,
        0.00071338,
        0.00071515,
        0.00071597,
        0.00071821,
        0.00073061,
        0.00074478,
        0.00074228,
        0.00074264,
        0.00074201,
        0.00073894,
        0.00073829,
        0.00074022,
        0.00073406,
        0.0007371,
        0.00073672,
        0.00073383,
        0.00073813,
        0.00073618,
        0.0007314,
        0.0007282,
        0.00072345,
        0.00072851,
        0.00073782,
        0.00074327,
        0.00074466,
        0.00074821,
        0.00075067,
        0.00077467,
        0.00077119,
        0.00077458,
        0.00077124,
        0.0007663,
        0.0007708,
        0.00076974,
        0.00076814,
        0.00076304,
        0.00076384,
        0.00076267,
        0.00075966,
        0.00075555,
        0.00075551,
        0.00076239,
        0.00076499,
        0.00076383,
        0.00077532,
        0.0007731,
        0.0007731,
        0.00077461,
        0.00077542,
        0.00077999,
        0.00078613,
        0.00079806,
        0.00079242,
        0.00078466,
        0.00078096,
        0.00078442,
        0.00078013,
        0.00078732,
        0.00079325,
        0.0008004,
        0.00080159,
        0.00079904,
        0.0008013,
        0.00080227,
        0.00080266,
        0.0007972,
        0.00079798,
        0.00079878,
        0.00079745,
        0.00079838,
        0.00079625,
        0.0007945,
        0.00079449,
        0.00079407,
        0.00079449,
        0.00078703,
        0.00078674,
        0.0007881,
        0.00078905,
        0.00079057,
        0.00078652,
        0.00078533,
        0.0007842,
        0.00078089,
        0.00078012,
        0.00077744,
        0.00077427,
        0.00077273,
        0.00077342,
        0.00077344,
        0.00076767,
        0.00076767,
        0.00076881,
        0.00076616,
        0.00076394,
        0.00076074,
        0.00076257,
        0.00076956,
        0.0007669,
        0.00076788,
        0.00075447,
        0.00075475,
        0.00075534,
        0.00075072,
        0.0007586,
        0.00075409,
        0.00074984,
        0.00074512,
        0.00075279,
        0.00075049,
        0.00074873,
        0.00073911,
        0.00074115,
        0.00073758,
        0.00073124,
        0.00074296,
        0.00074278,
        0.00074118,
        0.00073882,
        0.00074898,
        0.00073886,
        0.00073594,
        0.00073124,
        0.00074504,
        0.0007485,
        0.00074502,
        0.00074552,
        0.00073934,
        0.00074801,
        0.00073103,
        0.00074072,
        0.00073947,
        0.00073745,
        0.00074627,
        0.00074627,
        0.00074652,
        0.00074748,
        0.00075398,
        0.00074918,
        0.00074958,
        0.00074957,
        0.00074941,
        0.00075185,
        0.00075199,
        0.00076204,
        0.00075775,
        0.00075449,
        0.00075249,
        0.00075312,
        0.00075275,
        0.0007531,
        0.00075329,
        0.00074953,
        0.00074572,
        0.00074517,
        0.00074732,
        0.00075163,
        0.00075008,
        0.00074993,
        0.00074607,
        0.00074657,
        0.00074397,
        0.00074137,
        0.00074324,
        0.0007407,
        0.00073938,
        0.00074096,
        0.00074211,
        0.00074062,
        0.00073795,
        0.0007372,
        0.00073356,
        0.0007343,
        0.0007314,
        0.00072971,
        0.00073018,
        0.00072406,
        0.00072634,
        0.00072373,
        0.00072035,
        0.00072167,
        0.00072055,
        0.00071804,
        0.00072165,
        0.00072433,
        0.00072165,
        0.0007231,
        0.00072388,
        0.00072273,
        0.00072428,
        0.00072006,
        0.00071514,
        0.00071129,
        0.000713,
        0.00071248,
        0.00071196,
        0.00071268,
        0.00071405,
        0.00071549,
        0.00071627,
        0.00071625,
        0.00071839,
        0.00071566,
        0.00071661,
        0.00071834,
        0.00071763,
        0.00071835,
        0.00071802,
        0.00071766,
        0.00071695,
        0.00071414,
        0.0007149,
        0.00071339,
        0.00071108,
        0.00070987,
        0.00070848,
        0.00070743,
        0.00070635,
        0.00070658,
        0.00070241,
        0.00070598,
        0.00070729,
        0.00070662,
        0.00070696,
        0.00070736,
        0.00070666,
        0.00070354,
        0.00070495,
        0.00070353,
        0.00070403,
        0.00070474,
        0.00070363,
        0.00070398,
        0.00070425,
        0.00070702,
        0.00070701,
        0.00070546,
        0.00070425,
        0.00070425,
        0.00070353,
        0.00070475,
        0.00070244,
        0.00070129,
        0.00070025,
        0.00069953,
        0.00069618,
        0.00069516,
        0.00068965,
        0.00068823,
        0.00068846,
        0.00068678,
        0.00068756,
        0.00068683,
        0.00068455,
        0.00068582,
        0.0006876,
        0.00069244,
        0.0006933,
        0.00069136,
        0.00069102,
        0.0006895,
        0.00069227,
        0.00069199,
        0.00068754,
        0.00068882,
        0.00068925,
        0.0006875,
        0.00068647,
        0.00068777,
        0.00068742,
        0.00068608,
        0.0006864,
        0.00068674,
        0.00068617,
        0.00069014,
        0.00069412,
        0.00069345,
        0.00069072,
        0.00069277,
        0.00069422,
        0.00069345,
        0.00069294,
        0.00069827,
        0.00069975,
        0.00070219,
        0.00071326,
        0.00071163,
        0.00070944,
        0.00070944,
        0.00071627,
        0.00071838,
        0.00072393,
        0.00072192,
        0.00072281,
        0.00072851,
        0.00073968,
        0.00073468,
        0.00073914,
        0.00074194,
        0.00073144,
        0.000727,
        0.00072369,
        0.000725,
        0.00072631,
        0.00072884,
        0.0007321,
        0.00072649,
        0.00073022,
        0.00072667,
        0.00072811,
        0.00072761,
        0.00072683,
        0.0007263,
        0.00072665,
        0.00072703,
        0.00072731,
        0.00072447,
        0.00072676,
        0.00071914,
        0.00071978,
        0.00072377,
        0.00072488,
        0.00072561,
        0.00071954,
        0.00072218,
        0.00072146,
        0.00072356,
        0.00072166,
        0.00072345,
        0.00072374,
        0.00072303,
        0.00072034,
        0.00072166,
        0.000724,
        0.00072274,
        0.00071907,
        0.00071555,
        0.00071334,
        0.00071349,
        0.00071591,
        0.0007141,
        0.00071449,
        0.00071552,
        0.00071412,
        0.00071911,
        0.00072073,
        0.00072286,
        0.00072216,
        0.00072175,
        0.00072048,
        0.00072247,
        0.00072518,
        0.00071724,
        0.00072082,
        0.00072046,
        0.00072282,
        0.00072298,
        0.00073145,
        0.00073291,
        0.00073819,
        0.00075142,
        0.00074261,
        0.00074406,
        0.00074965,
        0.00075075,
        0.00074464,
        0.00073185,
        0.00072846,
        0.000733,
        0.000732,
        0.0007325,
        0.00073181,
        0.00074087,
        0.00073763,
        0.00073294,
        0.00073118,
        0.00073118,
        0.00072578,
        0.00072578,
        0.0007254,
        0.00072614,
        0.00072664,
        0.00072645,
        0.0007266,
        0.00072611,
        0.00072604,
        0.00072605,
        0.00072868,
        0.00072977,
        0.00072894,
        0.00073032,
        0.00073033,
        0.00073304,
        0.0007325,
        0.00072842,
        0.00072968,
        0.00072795,
        0.00072713,
        0.00072649,
        0.00072132,
        0.00071683,
        0.00071663,
        0.00071716,
        0.00071822,
        0.00071801,
        0.00072174,
        0.00072058,
        0.00072166,
        0.000722,
        0.000722,
        0.000722,
        0.00072181,
        0.00072503,
        0.00072428,
        0.00072327,
        0.00071962,
        0.00071702,
        0.00072176,
        0.00072153,
        0.00072092,
        0.00072463,
        0.00072272,
        0.00072307,
        0.00072437,
        0.00072437,
        0.00072364,
        0.00072358,
        0.00072234,
        0.00072234,
        0.00072233,
        0.00072254,
        0.00072311,
        0.00072214,
        0.00072036,
        0.00071619,
        0.00071459,
        0.00070925,
        0.00071116,
        0.00070811,
        0.00070955,
        0.00070542,
        0.00070603,
        0.0007007,
        0.00070381,
        0.00070416,
        0.00070504,
        0.00070532,
        0.00071008,
        0.00070812,
        0.00070601,
        0.00070626,
        0.00070611,
        0.00070679,
        0.00070805,
        0.00071156,
        0.00071077,
        0.00071078,
        0.00071337,
        0.00071469,
        0.00071327,
        0.00071142,
        0.00070851,
        0.00070882,
        0.00070981,
        0.00070992,
        0.00071532,
        0.00071535,
        0.00071658,
        0.00071739,
        0.00071848,
        0.00071726,
        0.00071629,
        0.00071595,
        0.00071704,
        0.00071568,
        0.00071442,
        0.00071409,
        0.00071478,
        0.00071386,
        0.00071227,
        0.00071089,
        0.00071038,
        0.00070988,
        0.00070755,
        0.00070666,
        0.0007074,
        0.00070315,
        0.00070298,
        0.00070226,
        0.00070114,
        0.00070245,
        0.00070278,
        0.00070339,
        0.00070394,
        0.00070557,
        0.00070282,
        0.0007005,
        0.00069379,
        0.00069582,
        0.00069343,
        0.00069308,
        0.00069065,
        0.00068587,
        0.00068513,
        0.00068824,
        0.00068411,
        0.00068721,
        0.00068654,
        0.00068975,
        0.00069173,
        0.00069538,
        0.00069825,
        0.00069862,
        0.00070098,
        0.00069511,
        0.00069823,
        0.00070109,
        0.00069863,
        0.00069892,
        0.00070094,
        0.00070492,
        0.00071124,
        0.00071032,
        0.00070593,
        0.0006995,
        0.00069863,
        0.00070162,
        0.00070292,
        0.00070622,
        0.00070313,
        0.00069928,
        0.00069988,
        0.00071144,
        0.00071386,
        0.00071399,
        0.00072923,
        0.00074949,
        0.00073489,
        0.00073835,
        0.00073802,
        0.00073726,
        0.00073838,
        0.00073635,
        0.00073468,
        0.00073579,
        0.00073289,
        0.00073248,
        0.00072941,
        0.00072884,
        0.00072431,
        0.00072378,
        0.00072415,
        0.00072395,
        0.00072234,
        0.00072216,
        0.00072633,
        0.00072625,
        0.00073177,
        0.00073167,
        0.00073232,
        0.00073175,
        0.000728,
        0.000728,
        0.00072687,
        0.00072614,
        0.0007249,
        0.00072411,
        0.00072435,
        0.00072654,
        0.0007269,
        0.000726,
        0.00072581
    ],
    "h": [
        0.00065164,
        0.00065067,
        0.0006512,
        0.00065397,
        0.0006542,
        0.00065225,
        0.00065472,
        0.00065472,
        0.00065472,
        0.00065473,
        0.00065703,
        0.00065836,
        0.00065964,
        0.00065964,
        0.00066436,
        0.00066365,
        0.00066484,
        0.0006637,
        0.00066262,
        0.0006631,
        0.00066392,
        0.00066459,
        0.00066458,
        0.00066459,
        0.00066484,
        0.0006658,
        0.00066532,
        0.00066626,
        0.00066681,
        0.00066607,
        0.00066574,
        0.00066611,
        0.00066524,
        0.00066486,
        0.0006628,
        0.0006656,
        0.00066533,
        0.00066563,
        0.00066563,
        0.00066629,
        0.00066875,
        0.00067021,
        0.00067432,
        0.000675,
        0.000675,
        0.000675,
        0.00067588,
        0.00067588,
        0.00067593,
        0.00067615,
        0.00067615,
        0.00067548,
        0.00067615,
        0.00067765,
        0.00067919,
        0.00067965,
        0.00068463,
        0.00068804,
        0.00069017,
        0.00068869,
        0.00068859,
        0.00069017,
        0.00068501,
        0.00068924,
        0.00069127,
        0.00069269,
        0.00069017,
        0.00069153,
        0.00068927,
        0.00068855,
        0.00068537,
        0.00068537,
        0.00068717,
        0.00069277,
        0.00069287,
        0.00069287,
        0.0006936,
        0.00069425,
        0.00069425,
        0.00069321,
        0.00069287,
        0.00069356,
        0.00069356,
        0.00069289,
        0.00069425,
        0.00069425,
        0.00069425,
        0.00069374,
        0.00069425,
        0.00069425,
        0.0007,
        0.00070455,
        0.00071467,
        0.00071444,
        0.00070665,
        0.00071467,
        0.00071467,
        0.00072,
        0.00072098,
        0.00072098,
        0.00072098,
        0.00071967,
        0.00072098,
        0.00072242,
        0.00073359,
        0.00074893,
        0.00074701,
        0.00074521,
        0.00074348,
        0.00074371,
        0.00074079,
        0.00074003,
        0.00074022,
        0.00073804,
        0.00073792,
        0.00073672,
        0.00074064,
        0.00073844,
        0.00073618,
        0.00073251,
        0.0007315,
        0.00072957,
        0.00074003,
        0.00075043,
        0.00075098,
        0.00074799,
        0.00075261,
        0.00077616,
        0.00077857,
        0.00077628,
        0.00077535,
        0.0007715,
        0.00077166,
        0.00077455,
        0.00077072,
        0.00076861,
        0.00076783,
        0.00077302,
        0.00076382,
        0.00076043,
        0.00075851,
        0.00076276,
        0.00076614,
        0.00076692,
        0.00077923,
        0.00077951,
        0.00077311,
        0.00077618,
        0.00078702,
        0.00078077,
        0.00079215,
        0.00079919,
        0.00080129,
        0.00079412,
        0.00078822,
        0.00078692,
        0.00078442,
        0.00078732,
        0.00079385,
        0.0008019,
        0.00080323,
        0.00080465,
        0.00081,
        0.00080571,
        0.00080534,
        0.00080425,
        0.00079997,
        0.00079958,
        0.00079997,
        0.00079917,
        0.00079917,
        0.00079758,
        0.00079571,
        0.00079509,
        0.00079508,
        0.00079449,
        0.00078927,
        0.00078926,
        0.00079,
        0.00079096,
        0.00079057,
        0.00078652,
        0.0007877,
        0.00078595,
        0.00078093,
        0.00078066,
        0.00077849,
        0.00077427,
        0.00077361,
        0.00077712,
        0.00077344,
        0.00076986,
        0.00076974,
        0.00076996,
        0.0007673,
        0.00076507,
        0.00076293,
        0.00076957,
        0.00077148,
        0.00076789,
        0.00076788,
        0.00076431,
        0.0007616,
        0.00075738,
        0.00075935,
        0.00075912,
        0.00076884,
        0.00076423,
        0.00076424,
        0.00076424,
        0.00076417,
        0.00075022,
        0.0007479,
        0.00074354,
        0.00075472,
        0.00075503,
        0.00074296,
        0.00074664,
        0.00075252,
        0.00075709,
        0.00075347,
        0.00074353,
        0.00074353,
        0.00075472,
        0.00075247,
        0.00075379,
        0.00075453,
        0.00075,
        0.00075,
        0.00075,
        0.00075,
        0.00075,
        0.00074763,
        0.00075,
        0.00075,
        0.00075,
        0.0007475,
        0.00075814,
        0.00075514,
        0.00074958,
        0.00074958,
        0.00075024,
        0.00075232,
        0.0007526,
        0.00076822,
        0.00076356,
        0.00075887,
        0.00075524,
        0.00075688,
        0.00075317,
        0.00075347,
        0.00075554,
        0.00075555,
        0.00074996,
        0.00074925,
        0.00074983,
        0.00075555,
        0.00075163,
        0.00075067,
        0.00074993,
        0.00074839,
        0.00074712,
        0.00074472,
        0.00074435,
        0.00074546,
        0.00074181,
        0.00074391,
        0.00074273,
        0.00074287,
        0.00074172,
        0.00073869,
        0.00073755,
        0.00073431,
        0.00073553,
        0.00073323,
        0.00073153,
        0.00073018,
        0.00072706,
        0.00072634,
        0.00072461,
        0.00072147,
        0.0007239,
        0.00072376,
        0.00072361,
        0.00072448,
        0.00072706,
        0.00072418,
        0.00072496,
        0.0007249,
        0.00072503,
        0.00072705,
        0.00072008,
        0.00071621,
        0.00071444,
        0.00071443,
        0.0007132,
        0.00071446,
        0.0007148,
        0.00071621,
        0.00071699,
        0.00071699,
        0.00072049,
        0.00073527,
        0.00071712,
        0.0007201,
        0.00071944,
        0.00071907,
        0.00071987,
        0.00071864,
        0.00071982,
        0.000717,
        0.00071822,
        0.00071778,
        0.00071339,
        0.000712,
        0.00071021,
        0.0007106,
        0.00070849,
        0.0007078,
        0.00070749,
        0.00070735,
        0.00070907,
        0.00070871,
        0.00070841,
        0.00070787,
        0.00070805,
        0.00070705,
        0.00070705,
        0.00070705,
        0.0007053,
        0.00070545,
        0.00070542,
        0.00070428,
        0.00070583,
        0.00070876,
        0.00071199,
        0.00070701,
        0.00070634,
        0.00070599,
        0.00070739,
        0.00070722,
        0.00070863,
        0.00070385,
        0.00070415,
        0.00070125,
        0.00069988,
        0.00069651,
        0.00069516,
        0.00068992,
        0.00068907,
        0.00068955,
        0.00068886,
        0.00068888,
        0.00068683,
        0.0006865,
        0.0006883,
        0.00069247,
        0.00069338,
        0.00069407,
        0.00069171,
        0.00069488,
        0.00069488,
        0.00069726,
        0.00069235,
        0.00068966,
        0.00069039,
        0.00068994,
        0.00069062,
        0.00069032,
        0.00068777,
        0.00068743,
        0.00068708,
        0.00068707,
        0.00068731,
        0.00069049,
        0.00069726,
        0.00069452,
        0.00069345,
        0.00069326,
        0.00069366,
        0.0007035,
        0.00069395,
        0.00070214,
        0.00070084,
        0.0007035,
        0.00071699,
        0.00071627,
        0.00071444,
        0.00071194,
        0.000716,
        0.00071901,
        0.00072706,
        0.00072884,
        0.00072597,
        0.00072998,
        0.00075243,
        0.00074042,
        0.00073906,
        0.00074244,
        0.00074244,
        0.000734,
        0.00073017,
        0.00072706,
        0.00072706,
        0.00072884,
        0.00073615,
        0.00073283,
        0.00073091,
        0.00073272,
        0.0007291,
        0.0007291,
        0.0007291,
        0.00072739,
        0.00072811,
        0.00072703,
        0.0007291,
        0.00072733,
        0.00072676,
        0.00072676,
        0.000721,
        0.00072521,
        0.00072593,
        0.00072706,
        0.00072615,
        0.00072419,
        0.00072314,
        0.00072434,
        0.00072362,
        0.00072491,
        0.0007252,
        0.00072704,
        0.00072704,
        0.00072594,
        0.00072433,
        0.000724,
        0.00072274,
        0.00072006,
        0.00071555,
        0.0007154,
        0.00071592,
        0.00071771,
        0.00071659,
        0.00071627,
        0.00071699,
        0.00071842,
        0.00073215,
        0.00072428,
        0.00072402,
        0.00072246,
        0.00072175,
        0.00072248,
        0.00072518,
        0.00072518,
        0.00072161,
        0.00072201,
        0.00072282,
        0.00072458,
        0.00073508,
        0.0007351,
        0.00074425,
        0.00075108,
        0.00075287,
        0.00074595,
        0.00075286,
        0.00076115,
        0.00075738,
        0.00074573,
        0.0007369,
        0.00073792,
        0.00073385,
        0.00073392,
        0.00073287,
        0.00074098,
        0.00074221,
        0.00073764,
        0.00073404,
        0.00073191,
        0.00073118,
        0.00072686,
        0.00072686,
        0.00072686,
        0.00072686,
        0.00072706,
        0.00072752,
        0.00072677,
        0.00072672,
        0.00072702,
        0.00072941,
        0.00072969,
        0.00073124,
        0.00073215,
        0.00073033,
        0.00073288,
        0.00073384,
        0.0007325,
        0.00073147,
        0.00073042,
        0.00073121,
        0.00072832,
        0.00072832,
        0.00072132,
        0.00071696,
        0.00071823,
        0.00072002,
        0.00072019,
        0.0007227,
        0.0007227,
        0.0007227,
        0.00072309,
        0.00072235,
        0.000722,
        0.0007227,
        0.00072521,
        0.00072654,
        0.00072462,
        0.00072342,
        0.00072069,
        0.00072164,
        0.00072201,
        0.00072153,
        0.00072463,
        0.00072463,
        0.00072414,
        0.00072487,
        0.00072437,
        0.00072473,
        0.00072447,
        0.00072484,
        0.0007225,
        0.00072267,
        0.00072254,
        0.00072311,
        0.0007237,
        0.00072214,
        0.00072057,
        0.00071646,
        0.0007146,
        0.00071392,
        0.00071116,
        0.0007113,
        0.00070955,
        0.00070672,
        0.00070603,
        0.00070431,
        0.00070416,
        0.0007054,
        0.00070705,
        0.00071089,
        0.00071257,
        0.00070812,
        0.00071159,
        0.00070886,
        0.00070951,
        0.00071068,
        0.000712,
        0.000712,
        0.00071149,
        0.00071443,
        0.00071504,
        0.00071469,
        0.0007154,
        0.00071177,
        0.00070918,
        0.00070882,
        0.00070981,
        0.0007178,
        0.00071764,
        0.00071681,
        0.0007204,
        0.00072026,
        0.00071849,
        0.00071773,
        0.00071846,
        0.00071918,
        0.00071927,
        0.00071767,
        0.0007155,
        0.00071556,
        0.00071621,
        0.00071515,
        0.00071476,
        0.00071181,
        0.00071128,
        0.0007106,
        0.00070807,
        0.00070983,
        0.00070847,
        0.00070344,
        0.00070453,
        0.00070227,
        0.00070383,
        0.00070525,
        0.00070383,
        0.00070523,
        0.00070558,
        0.00070558,
        0.00070294,
        0.00070506,
        0.00070139,
        0.00069582,
        0.00069446,
        0.00069308,
        0.0006923,
        0.00068902,
        0.000691,
        0.00068893,
        0.0006876,
        0.00069241,
        0.00069191,
        0.00069338,
        0.00069999,
        0.00070071,
        0.00069925,
        0.00070454,
        0.00070203,
        0.00069995,
        0.00070214,
        0.00070109,
        0.0007004,
        0.00070107,
        0.00070538,
        0.00071502,
        0.00071502,
        0.00071699,
        0.00070655,
        0.00070166,
        0.00070253,
        0.0007072,
        0.00070705,
        0.000712,
        0.00070368,
        0.0007005,
        0.000712,
        0.00072038,
        0.00071541,
        0.00073103,
        0.00075851,
        0.00075024,
        0.00073983,
        0.00074316,
        0.00073802,
        0.00074227,
        0.00073838,
        0.00073635,
        0.00073689,
        0.000737,
        0.00073615,
        0.00073248,
        0.00073013,
        0.00072957,
        0.00072468,
        0.00072721,
        0.00072468,
        0.00072446,
        0.00072252,
        0.00072706,
        0.00072938,
        0.00073397,
        0.00073558,
        0.00073545,
        0.00073414,
        0.00073176,
        0.00072836,
        0.000728,
        0.00072832,
        0.00072774,
        0.00072676,
        0.00072666,
        0.00072799,
        0.00072799,
        0.0007269,
        0.00072654,
        0.00072582
    ],
    "l": [
        0.00064742,
        0.00064696,
        0.00064828,
        0.00064553,
        0.00064553,
        0.00064406,
        0.00064406,
        0.00064587,
        0.00064791,
        0.00064888,
        0.00065131,
        0.00065442,
        0.000653,
        0.000653,
        0.00065619,
        0.00065696,
        0.00065696,
        0.00065866,
        0.000655,
        0.00065629,
        0.00065707,
        0.00066168,
        0.00065769,
        0.00066262,
        0.00066285,
        0.00066079,
        0.00066176,
        0.00065768,
        0.00066301,
        0.00066225,
        0.00066201,
        0.00066345,
        0.00066257,
        0.00066148,
        0.00066148,
        0.00066148,
        0.00066265,
        0.00066019,
        0.00066364,
        0.00066364,
        0.00066452,
        0.0006679,
        0.00066887,
        0.00067118,
        0.00067365,
        0.00067231,
        0.00067399,
        0.000675,
        0.00067353,
        0.00067584,
        0.00067239,
        0.00067389,
        0.00067546,
        0.00067615,
        0.00067548,
        0.00067622,
        0.00067666,
        0.00067996,
        0.00067301,
        0.00068445,
        0.00068486,
        0.0006814,
        0.00067094,
        0.00067797,
        0.00068377,
        0.00068243,
        0.00067655,
        0.00068297,
        0.00068129,
        0.00068105,
        0.00068171,
        0.0006841,
        0.00068423,
        0.0006845,
        0.00068529,
        0.00068805,
        0.00068803,
        0.00068961,
        0.00069011,
        0.00068788,
        0.00068926,
        0.00069072,
        0.0006908,
        0.00068926,
        0.00068995,
        0.00069011,
        0.0006908,
        0.00068132,
        0.00068626,
        0.00068788,
        0.00069321,
        0.00069581,
        0.00069966,
        0.00069461,
        0.00070056,
        0.00070545,
        0.00070547,
        0.0007121,
        0.0007066,
        0.00071091,
        0.00071104,
        0.00071229,
        0.00071101,
        0.0007127,
        0.0007161,
        0.00072962,
        0.00074101,
        0.00073929,
        0.00073854,
        0.00073405,
        0.00073369,
        0.00073489,
        0.00073395,
        0.00073335,
        0.00073051,
        0.00072892,
        0.000733,
        0.00073603,
        0.0007314,
        0.00072755,
        0.00072273,
        0.00072309,
        0.00072851,
        0.00073754,
        0.00073719,
        0.00074271,
        0.00074597,
        0.00075043,
        0.00076231,
        0.00077071,
        0.00076725,
        0.00076173,
        0.00076517,
        0.00076706,
        0.00076737,
        0.00076,
        0.00076304,
        0.00075643,
        0.00075624,
        0.00075118,
        0.00075324,
        0.00075252,
        0.00075853,
        0.00076231,
        0.00076003,
        0.00076383,
        0.00077234,
        0.00077155,
        0.00076765,
        0.00077417,
        0.00077884,
        0.00078238,
        0.00078703,
        0.00078547,
        0.00077913,
        0.00078018,
        0.00077658,
        0.00077752,
        0.00078704,
        0.00079167,
        0.00079923,
        0.00079826,
        0.00079706,
        0.0007989,
        0.0008,
        0.00079602,
        0.0007952,
        0.00079797,
        0.00079678,
        0.0007952,
        0.00079492,
        0.0007933,
        0.0007933,
        0.0007933,
        0.0007933,
        0.0007877,
        0.0007852,
        0.0007834,
        0.00078653,
        0.00078732,
        0.0007834,
        0.0007834,
        0.0007842,
        0.00078,
        0.00077922,
        0.00077508,
        0.00077327,
        0.000772,
        0.00077264,
        0.00076975,
        0.00076729,
        0.00076552,
        0.00076651,
        0.00076619,
        0.00075812,
        0.00075989,
        0.00075958,
        0.0007618,
        0.00075539,
        0.00076658,
        0.00075218,
        0.00074595,
        0.00075141,
        0.00074734,
        0.00074624,
        0.00075211,
        0.00074595,
        0.00074223,
        0.0007433,
        0.00074125,
        0.00073924,
        0.00073469,
        0.00073389,
        0.00073256,
        0.00073193,
        0.00073078,
        0.00073779,
        0.00073717,
        0.00072273,
        0.00073882,
        0.0007367,
        0.0007344,
        0.00072478,
        0.00072273,
        0.000744,
        0.00073924,
        0.00074132,
        0.00073801,
        0.00073396,
        0.00073028,
        0.00072723,
        0.00073436,
        0.00073288,
        0.00073538,
        0.00074478,
        0.00074479,
        0.0007448,
        0.00074398,
        0.00074762,
        0.00074739,
        0.00074743,
        0.00074746,
        0.00074862,
        0.00075019,
        0.00075149,
        0.00075738,
        0.00075361,
        0.00075311,
        0.00075249,
        0.00075242,
        0.00075234,
        0.00075234,
        0.00074443,
        0.00074443,
        0.0007435,
        0.0007446,
        0.00074349,
        0.00074958,
        0.00074993,
        0.0007441,
        0.00074536,
        0.00074317,
        0.00074063,
        0.00073802,
        0.00074016,
        0.00073925,
        0.00073925,
        0.00073802,
        0.00073802,
        0.00073499,
        0.00073499,
        0.00073249,
        0.00073085,
        0.00072957,
        0.00072742,
        0.00072897,
        0.00072171,
        0.00072,
        0.00072,
        0.00072,
        0.00071831,
        0.00071725,
        0.00071407,
        0.00071588,
        0.00072129,
        0.00072057,
        0.00072128,
        0.00072277,
        0.00072057,
        0.00072272,
        0.00071946,
        0.00071407,
        0.00071091,
        0.00070835,
        0.0007109,
        0.00071195,
        0.00070877,
        0.00071196,
        0.00071122,
        0.00071337,
        0.00071415,
        0.00071437,
        0.00071271,
        0.00071283,
        0.00071661,
        0.00071693,
        0.00071585,
        0.00071695,
        0.00071662,
        0.00071692,
        0.00071272,
        0.00071232,
        0.00071235,
        0.00070596,
        0.00070525,
        0.00070636,
        0.00070525,
        0.00070284,
        0.00070534,
        0.0007,
        0.00070206,
        0.00070589,
        0.00070415,
        0.00070485,
        0.00070519,
        0.00070454,
        0.00070082,
        0.0007,
        0.00070195,
        0.00070001,
        0.00070245,
        0.00070177,
        0.00070362,
        0.0007025,
        0.00070384,
        0.00070525,
        0.0007032,
        0.0007032,
        0.0007032,
        0.00070284,
        0.00070353,
        0.00070257,
        0.00069899,
        0.00069995,
        0.00069925,
        0.00069557,
        0.00069278,
        0.00068864,
        0.00068788,
        0.00068476,
        0.00068445,
        0.0006835,
        0.00068105,
        0.00068105,
        0.00068277,
        0.00067904,
        0.0006876,
        0.0006904,
        0.00069102,
        0.00069067,
        0.00068895,
        0.0006895,
        0.00069131,
        0.0006835,
        0.00068749,
        0.00068881,
        0.00068595,
        0.00068603,
        0.00068612,
        0.00068708,
        0.00068468,
        0.00068608,
        0.00068605,
        0.00068445,
        0.00068445,
        0.00068945,
        0.00068808,
        0.00068934,
        0.00068915,
        0.00068897,
        0.00068973,
        0.00068986,
        0.00069225,
        0.00069827,
        0.0006993,
        0.00069976,
        0.00070309,
        0.00070565,
        0.000707,
        0.00070796,
        0.00071258,
        0.00071472,
        0.00071891,
        0.00072084,
        0.00072084,
        0.00072851,
        0.00073267,
        0.00073396,
        0.00073407,
        0.00073039,
        0.00072698,
        0.00072272,
        0.00072108,
        0.00072201,
        0.00072594,
        0.00072776,
        0.00072613,
        0.00072535,
        0.00072725,
        0.00072305,
        0.00072594,
        0.00072272,
        0.00072502,
        0.00072323,
        0.0007263,
        0.00072379,
        0.00072388,
        0.00072376,
        0.00071914,
        0.00071843,
        0.00071964,
        0.00072326,
        0.00072344,
        0.00071886,
        0.00071852,
        0.00072102,
        0.00072066,
        0.0007213,
        0.0007193,
        0.00072131,
        0.00072264,
        0.00071998,
        0.00071796,
        0.0007177,
        0.0007177,
        0.0007144,
        0.00071271,
        0.00071271,
        0.00070812,
        0.00071053,
        0.00070946,
        0.00071089,
        0.00071374,
        0.00071271,
        0.00071412,
        0.00071271,
        0.00072073,
        0.00072117,
        0.00072026,
        0.00072048,
        0.00071992,
        0.00072153,
        0.00071514,
        0.00071489,
        0.00072045,
        0.00071985,
        0.00072282,
        0.00072123,
        0.00072781,
        0.00073261,
        0.00073762,
        0.00073501,
        0.00073395,
        0.00073491,
        0.00074353,
        0.00074428,
        0.00072966,
        0.00072305,
        0.00072742,
        0.00073047,
        0.0007314,
        0.0007303,
        0.00073068,
        0.00073545,
        0.00072895,
        0.00072852,
        0.00073009,
        0.00072099,
        0.00072541,
        0.00072343,
        0.0007254,
        0.0007238,
        0.00072621,
        0.00072645,
        0.0007252,
        0.00072556,
        0.00072604,
        0.00072605,
        0.00072859,
        0.00072845,
        0.00072857,
        0.00072997,
        0.00072996,
        0.00073069,
        0.00072696,
        0.00072842,
        0.00072716,
        0.00072687,
        0.00072613,
        0.00072048,
        0.00071556,
        0.0007158,
        0.00071662,
        0.00071716,
        0.00071737,
        0.00071672,
        0.00072054,
        0.0007199,
        0.00072114,
        0.00072165,
        0.000722,
        0.00072102,
        0.00072164,
        0.00072304,
        0.00072319,
        0.0007177,
        0.00071701,
        0.00071702,
        0.00072069,
        0.00072068,
        0.00072078,
        0.0007228,
        0.00072271,
        0.00072306,
        0.0007228,
        0.0007228,
        0.0007228,
        0.000722,
        0.000722,
        0.000722,
        0.00072164,
        0.000722,
        0.00072213,
        0.00072015,
        0.00071588,
        0.00071354,
        0.00070712,
        0.00070889,
        0.00070776,
        0.00070776,
        0.00070525,
        0.00070453,
        0.00069929,
        0.0007007,
        0.00070381,
        0.00070385,
        0.000705,
        0.000705,
        0.00070634,
        0.000705,
        0.000705,
        0.00070284,
        0.00070432,
        0.00070594,
        0.00070698,
        0.00070971,
        0.00070971,
        0.00071078,
        0.00071195,
        0.00071184,
        0.00071041,
        0.00070806,
        0.00070776,
        0.00070776,
        0.00070846,
        0.00070432,
        0.00070876,
        0.0007151,
        0.0007156,
        0.00071739,
        0.0007156,
        0.0007162,
        0.0007156,
        0.0007156,
        0.00071616,
        0.00071411,
        0.00071271,
        0.00071306,
        0.00071095,
        0.00071227,
        0.00070877,
        0.00071018,
        0.00070776,
        0.00070543,
        0.00070595,
        0.00070666,
        0.00070174,
        0.00069795,
        0.00070175,
        0.000698,
        0.00070062,
        0.0007014,
        0.00070278,
        0.00070269,
        0.00070394,
        0.00070176,
        0.00069796,
        0.0006931,
        0.00068831,
        0.0006924,
        0.00069169,
        0.00068,
        0.00068587,
        0.00068445,
        0.0006835,
        0.0006835,
        0.00068411,
        0.00068603,
        0.00068619,
        0.0006894,
        0.00069104,
        0.00069538,
        0.00069477,
        0.00069862,
        0.00069337,
        0.00069392,
        0.00069788,
        0.00069697,
        0.00069653,
        0.00069802,
        0.00070012,
        0.00070476,
        0.00070891,
        0.00070328,
        0.00069894,
        0.0006931,
        0.00069771,
        0.00070162,
        0.00070258,
        0.00070174,
        0.00069928,
        0.00069893,
        0.00069893,
        0.00071129,
        0.00071292,
        0.00071377,
        0.0007285,
        0.00073288,
        0.00073396,
        0.00073616,
        0.00073541,
        0.00073685,
        0.00073448,
        0.00073468,
        0.00073395,
        0.00072778,
        0.0007318,
        0.0007294,
        0.00072272,
        0.00072305,
        0.0007236,
        0.0007236,
        0.0007236,
        0.00072144,
        0.00072086,
        0.00072175,
        0.00072508,
        0.00072532,
        0.00072995,
        0.00073069,
        0.00073069,
        0.00072764,
        0.00072764,
        0.00072586,
        0.00072549,
        0.0007249,
        0.00072326,
        0.00072305,
        0.00072424,
        0.00072617,
        0.00072545,
        0.00072509,
        0.00072581
    ],
    "v": [
        2.800364744763,
        10.619189634537,
        4.988923777101,
        28.087383702819,
        0.809440377592,
        6.237361327132,
        4.413505241109,
        2.899112572706,
        13.637380159844,
        15.573243943540,
        2.467802806091,
        12.191893542057,
        36.837524084394,
        17.064939477218,
        25.582976720576,
        21.873022562117,
        35.323261754422,
        6.311614494164,
        3.050167366015,
        7.741491634918,
        3.107657515791,
        0.761512887614,
        1.887833945667,
        12.479206416987,
        2.061255762853,
        8.424450116306,
        9.701358944683,
        4.381909590513,
        11.090127231282,
        20.095079296788,
        24.753170438652,
        21.822501229316,
        5.446363058756,
        22.571473112619,
        25.104973653280,
        13.891961621041,
        1.759077588734,
        11.579997072943,
        4.308599351241,
        4.144477882828,
        9.961966259228,
        7.324719078794,
        14.317697665365,
        15.718678443380,
        6.703323301417,
        2.038896995996,
        3.847764922542,
        1.081845595450,
        13.037170174702,
        6.441636682698,
        3.802411696162,
        0.783585261144,
        6.341329391827,
        3.075761705890,
        0.835264138174,
        44.077484182036,
        7.732315628457,
        1.156376025032,
        32.983404775469,
        36.973146660120,
        3.602695680922,
        23.554008890006,
        11.084015209722,
        0.948343561892,
        26.662668944871,
        21.373236015937,
        11.885611782080,
        44.228749339885,
        13.525021555879,
        57.987408998094,
        13.065626872267,
        5.504462491045,
        24.489279099098,
        2.767864766559,
        31.519830227214,
        4.572947196845,
        9.685200009148,
        4.212414206799,
        10.285969553783,
        31.043488706452,
        28.014469198202,
        4.897772817227,
        13.321531676125,
        1.397013938921,
        4.313432412499,
        29.971929134401,
        13.853821786884,
        7.408041694219,
        21.194321143879,
        10.869140086851,
        2.220512633506,
        21.158782643274,
        6.677696738912,
        11.323813432337,
        2.722390150674,
        4.466620217678,
        16.539396613412,
        10.859316172650,
        31.860743661384,
        10.787225786327,
        7.909687755701,
        9.290926689959,
        0.981149061557,
        27.162321655984,
        9.642805500323,
        22.321699201470,
        10.919177878070,
        10.438612506957,
        11.562508853145,
        24.309740908151,
        33.547797815488,
        11.795492108602,
        5.448551297693,
        15.269023901306,
        13.324441632397,
        38.821761865662,
        6.223518102608,
        0.854139564679,
        44.144009139105,
        36.520801593004,
        28.121433768752,
        21.257601615150,
        8.873866906264,
        5.294740976742,
        10.672786390082,
        24.014587105808,
        36.352743490172,
        16.058061644074,
        6.502395835527,
        1.513501781213,
        5.717458004869,
        45.678861810432,
        9.870952606596,
        12.424989967909,
        9.493737067621,
        31.730308576404,
        14.661701551688,
        27.513919839278,
        9.625383073696,
        14.583275235674,
        12.863705475649,
        14.737558616372,
        2.173631529535,
        18.984808111941,
        47.733314429512,
        38.455881875679,
        6.205070798725,
        0.460813582884,
        5.959484394812,
        0.431678684706,
        8.686860377381,
        9.704366300350,
        20.579249873733,
        5.934378897530,
        13.899058284845,
        43.321284216729,
        48.090854084111,
        5.685719732260,
        22.088967493691,
        41.009571894532,
        31.689894767785,
        0.387463231404,
        23.359702155250,
        44.434528174887,
        31.208598082598,
        28.798848852760,
        8.817794805256,
        37.222005204208,
        10.084884861376,
        30.898766053998,
        7.967851391717,
        4.308944656888,
        1.400348908198,
        29.796748935294,
        4.107100318517,
        3.492019259401,
        20.243407527537,
        28.799097366025,
        2.916359995231,
        15.573893476899,
        5.894156063396,
        21.780545140178,
        20.221713765671,
        11.779115503704,
        19.985502779858,
        23.305684898354,
        6.625572129366,
        19.492477507949,
        9.269289497794,
        11.966832864575,
        8.996853908144,
        16.220654401813,
        32.805707974204,
        0.711491413746,
        3.876864869861,
        62.308164521995,
        15.984141722401,
        2.765043507135,
        1.163030489153,
        6.388046350975,
        5.437259077222,
        6.536775424568,
        48.377175804743,
        74.385499127295,
        10.904581059727,
        5.184738149322,
        14.381887262243,
        3.097304602841,
        24.187870237584,
        16.157160731775,
        45.848005240291,
        20.768353522642,
        8.325072639146,
        3.013265999122,
        0.969843390126,
        44.541665913061,
        7.718874687792,
        16.251051539682,
        27.385266450216,
        17.154390133157,
        4.182081488573,
        4.250175289556,
        9.296594964309,
        2.432635224512,
        14.384690454756,
        3.734122547249,
        2.676767050396,
        20.590871826277,
        26.123500544316,
        7.954829004987,
        42.142380806763,
        2.495479661969,
        5.541618465844,
        14.818344973064,
        0.884495358819,
        3.491460713462,
        10.683406002020,
        15.108915142614,
        29.622931313355,
        20.834838579389,
        3.758267155091,
        33.553859673433,
        40.336084030638,
        9.039330764730,
        14.008308445680,
        16.623553134595,
        0.230962522324,
        5.508684077248,
        41.129057246612,
        18.655817594712,
        2.329423420928,
        17.232183784765,
        3.738633692141,
        55.551601330671,
        22.492250066106,
        11.085551877426,
        19.160146664513,
        3.206019953343,
        13.568959241938,
        1.830502385804,
        0.691705864405,
        16.109351343508,
        64.335312239944,
        10.236241373126,
        7.488502201365,
        12.969254378974,
        23.594940224969,
        6.126300382952,
        2.836344927327,
        1.467572026192,
        3.105268988033,
        30.421909636558,
        9.256631539789,
        8.571817307484,
        58.581836065496,
        76.392201024617,
        17.279063289655,
        12.309524576473,
        8.362296547713,
        1.036705172817,
        7.611696356239,
        1.467164387488,
        1.096138514653,
        6.771830767657,
        6.506825658422,
        22.876469235207,
        15.567236927829,
        4.430115562541,
        1.244981928271,
        1.592205277360,
        6.821265965350,
        7.275953124400,
        3.086155952539,
        0.471776232826,
        7.418568927885,
        19.055290753635,
        26.008405898749,
        19.476676074645,
        8.194867399304,
        11.327416917978,
        21.289373829729,
        3.131881002552,
        56.205241613192,
        2.556483108517,
        9.496889802233,
        38.554742119767,
        45.605814043201,
        13.195665860779,
        11.148747566827,
        64.375757638377,
        14.196749657041,
        10.858781777695,
        4.811472131113,
        13.807942726732,
        4.314407736097,
        22.157320541888,
        34.425026726227,
        6.306897113459,
        6.077396439637,
        9.529846859499,
        9.869858240645,
        31.900012466956,
        10.389503827580,
        2.588090710129,
        45.788925776018,
        21.388185692419,
        7.581852703948,
        0.502578523671,
        6.638231165696,
        18.438124368735,
        21.154580331680,
        12.883670686621,
        13.207586865663,
        1.531728836762,
        70.955300155538,
        11.509148526971,
        8.380409543307,
        1.637283916357,
        0.680292641939,
        1.634901902546,
        14.182302387059,
        43.982732845413,
        3.274862257707,
        2.662450707750,
        37.738424592255,
        16.140791641759,
        6.399258698819,
        0.706931023827,
        1.625444772066,
        1.674814266309,
        3.399367039762,
        1.603804315582,
        1.296362098014,
        32.622319942186,
        47.029935133927,
        5.602403447616,
        13.429420576943,
        2.921123620066,
        2.333524827032,
        14.344998030456,
        2.356836540486,
        2.948558455685,
        0.607308568609,
        7.091485383925,
        2.348071679984,
        2.335659707772,
        52.081008813561,
        10.241004533251,
        6.832820087673,
        45.114825400784,
        34.034290595792,
        0.877240278411,
        46.135262179363,
        2.537472292252,
        4.008905967158,
        24.704069534341,
        11.306418988014,
        28.840029479560,
        36.454510695366,
        4.700007664226,
        5.758080310366,
        3.976518944358,
        13.164747507486,
        57.377964091466,
        1.158185490019,
        10.809241014616,
        21.651557558971,
        24.309581014077,
        29.193972138878,
        29.808139756538,
        20.657821079893,
        25.669668116128,
        38.178566634157,
        26.517974138147,
        6.136145268596,
        23.122391211854,
        21.581090737675,
        9.418166070416,
        4.131017821014,
        2.227760218554,
        6.169077989200,
        2.875983799755,
        5.934025372370,
        10.650118802132,
        3.356459032990,
        0.644072593575,
        7.900147467685,
        11.227524893842,
        7.638033184366,
        14.798129935913,
        7.871754148535,
        15.500611694147,
        35.302421270976,
        41.624326329841,
        9.888496275517,
        22.721169396001,
        56.183555771589,
        9.618536566862,
        16.425407326979,
        24.921323709589,
        0.584137063774,
        1.397811020112,
        7.725150540016,
        3.610818650044,
        0.609477025232,
        0.494600794128,
        0.184253055104,
        39.880473354363,
        2.764780079149,
        1.741628832367,
        31.320459405293,
        5.466810793671,
        38.574677751774,
        22.621025637010,
        1.867235943789,
        1.696133260885,
        8.261554884119,
        34.316702626271,
        26.036734452886,
        2.017782997159,
        7.951708296853,
        8.95919587331,
        4.652219336763,
        5.936798875588,
        18.777180594321,
        18.106923164341,
        32.039947199831,
        19.978129920111,
        18.774132839757,
        5.571658536606,
        7.305319752906,
        11.364647006548,
        16.560163971422,
        11.129325414064,
        8.030895981432,
        20.568629148459,
        0.190319893002,
        15.528494479038,
        16.239424911904,
        31.532081047833,
        10.166454435126,
        10.885298625926,
        19.933263037318,
        5.645996720768,
        37.015982505299,
        2.219697512903,
        28.572326956429,
        27.592608936514,
        5.019233238804,
        49.506227295664,
        14.777299753293,
        7.834207196441,
        1.119142128497,
        8.954537967536,
        20.917468273907,
        4.071882640139,
        8.605815350730,
        29.109298822508,
        39.974773570805,
        46.610723118102,
        7.052805230805,
        28.721310622458,
        0.858501794551,
        16.392799995895,
        5.387100595241,
        26.071629986435,
        25.250166608731,
        3.353025403763,
        0.355238824866,
        31.078155562704,
        9.729085506164,
        3.084028063709,
        0.175213710740,
        0.805614900749,
        3.640327053251,
        2.788860033758,
        24.379052337317,
        16.716073894896,
        17.362799079620,
        4.910604206418,
        1.480078019843,
        0.618660155328,
        7.877978641161,
        19.566010972764,
        19.948342515174,
        11.248053885597,
        2.716199634771,
        2.241372411978,
        36.145736626018,
        6.654744324790,
        3.6998441638,
        3.385988013279,
        17.008891485507,
        9.933836014165,
        5.410915524335,
        18.053603356627,
        24.364206546781,
        11.895907808266,
        17.611290896232,
        15.661441685389,
        22.647698079647,
        3.561397435942,
        28.163097772588,
        0.480597312488,
        34.852300925909,
        12.042815543078,
        10.520787776845,
        27.248260540625,
        21.794943916657,
        3.095137749128,
        2.145965087644,
        18.291935246717,
        4.571417228758,
        41.620581473099,
        18.646047348670,
        12.306281404282,
        62.713505248137,
        9.150922931593,
        10.845993693075,
        9.702291263484,
        16.814534550702,
        5.520555451840,
        6.008438433032,
        25.931172909606,
        14.757695960946,
        33.109685666853,
        7.660084928595,
        1.325252946788,
        31.165242368809,
        1.811477643676,
        13.290378052965,
        4.537221985812,
        4.734659133261,
        5.121267478510,
        5.441488450388,
        20.004004708140,
        28.590127370503,
        14.651580890502,
        24.727008998880,
        1.707181469072,
        91.125078395001,
        2.763143660210,
        3.023197323156,
        9.589188576497,
        25.631026683871,
        8.209556506227,
        1.586897542508,
        24.246683688293,
        4.798039327042,
        22.253767672610,
        35.983978376483,
        7.217663619656,
        12.381772464828,
        4.224761854467,
        56.089723639759,
        0.803114890555,
        17.417691929416,
        19.089950460738,
        53.233602676735,
        22.453354583134,
        4.354997624447,
        5.210896617972,
        16.177204802743,
        7.040042938299,
        73.352309034891,
        7.781185031086,
        9.862159788281,
        8.129346472433,
        13.663723758783,
        57.640468595225,
        6.570153327324,
        1.443905129194,
        53.309859682213,
        35.943469271146,
        6.788960313585,
        17.978845879748,
        34.895335473051,
        6.201214325798,
        32.112332539890,
        0.351419538212,
        2.395584728832,
        2.323755845587,
        1.367499683747,
        4.090827646681,
        14.752400952623,
        39.955549575531,
        46.825103107285,
        23.737290630538,
        24.449612367331,
        1.674889741087,
        19.526579387293,
        13.692296947518,
        1.833551371010,
        37.057105014128,
        30.115680443027,
        0.633558653713,
        10.026046074878,
        1.800479577985,
        7.556263697043,
        4.538233928302,
        20.607103967803,
        31.743228515774,
        29.369528441940,
        5.233552065039,
        28.455544545850,
        8.913005403314,
        30.085174148910,
        25.991440866114,
        55.778995844836,
        2.830882221628,
        17.586207782279,
        8.966820799234,
        76.349439304410,
        21.654423519285,
        10.525626065967,
        3.474121168133,
        7.853241457939,
        94.548908876174,
        12.642385591514,
        1.623905493869,
        34.928373217756,
        21.672821937950,
        3.560205487704,
        47.307589928359,
        17.734113951579,
        11.331584846956,
        0.638101055202,
        7.511111538393,
        1.672197163434,
        8.57340672743,
        0.961138802355,
        10.013034069595,
        17.503554675854,
        55.655902205006,
        5.999155925737,
        24.471754650387,
        43.663458774209,
        13.092163272550,
        18.743142709705,
        1.645864296876,
        12.540539024689,
        7.552890176113,
        8.005192907928,
        4.796943932180,
        3.745728648017,
        2.935898924983,
        0.260842794603,
        0.505176171342,
        16.999546734865,
        30.896857634848,
        28.501782631585,
        51.675139089868,
        2.500703614478
    ],
    "s": "ok"
}